project/verilog/pixelSensor_tb.vcd
$date
	Wed Nov 17 10:26:27 2021
$end
$version
	Icarus Verilog
$end
$timescale
	1ps
$end
$scope module pixelSensor_tb $end
$var wire 8 ! pixelDataOut [7:0] $end
$var reg 1 " clk $end
$var reg 1 # reset $end
$scope module top1 $end
$var wire 1 $ anaReset $end
$var wire 1 " clk $end
$var wire 8 % pixData [7:0] $end
$var wire 1 # reset $end
$var wire 1 & read4 $end
$var wire 1 ' read3 $end
$var wire 1 ( read2 $end
$var wire 1 ) read1 $end
$var wire 1 * expose $end
$var wire 1 + erase $end
$var wire 1 , convert $end
$var wire 1 - anaRamp $end
$var wire 1 . anaBias1 $end
$var reg 8 / data [7:0] $end
$var reg 8 0 pixelDataOut [7:0] $end
$scope module fsm1 $end
$var wire 1 " clk $end
$var wire 1 # reset $end
$var reg 1 , convert $end
$var reg 1 + erase $end
$var reg 1 * expose $end
$var reg 3 1 next_state [2:0] $end
$var reg 1 ) read1 $end
$var reg 1 ( read2 $end
$var reg 1 ' read3 $end
$var reg 1 & read4 $end
$var reg 3 2 state [2:0] $end
$var integer 32 3 counter [31:0] $end
$upscope $end
$scope module ps1 $end
$var wire 8 4 COUNTER [7:0] $end
$var wire 1 + ERASE $end
$var wire 1 * EXPOSE $end
$var wire 1 - RAMP $end
$var wire 1 ) READ1 $end
$var wire 1 ( READ2 $end
$var wire 1 ' READ3 $end
$var wire 1 & READ4 $end
$var wire 1 $ RESET $end
$var wire 1 . VBN1 $end
$scope module P0 $end
$var wire 8 5 DATA [7:0] $end
$var wire 1 + ERASE $end
$var wire 1 * EXPOSE $end
$var wire 1 - RAMP $end
$var wire 1 ) READ $end
$var wire 1 $ RESET $end
$var wire 1 . VBN1 $end
$var reg 1 6 cmp $end
$var reg 8 7 p_data [7:0] $end
$var real 1 8 adc $end
$var real 1 9 lsb $end
$var real 1 : tmp $end
$var real 1 ; v_erase $end
$upscope $end
$scope module P1 $end
$var wire 8 < DATA [7:0] $end
$var wire 1 + ERASE $end
$var wire 1 * EXPOSE $end
$var wire 1 - RAMP $end
$var wire 1 ( READ $end
$var wire 1 $ RESET $end
$var wire 1 . VBN1 $end
$var reg 1 = cmp $end
$var reg 8 > p_data [7:0] $end
$var real 1 ? adc $end
$var real 1 @ lsb $end
$var real 1 A tmp $end
$var real 1 B v_erase $end
$upscope $end
$scope module P2 $end
$var wire 8 C DATA [7:0] $end
$var wire 1 + ERASE $end
$var wire 1 * EXPOSE $end
$var wire 1 - RAMP $end
$var wire 1 ' READ $end
$var wire 1 $ RESET $end
$var wire 1 . VBN1 $end
$var reg 1 D cmp $end
$var reg 8 E p_data [7:0] $end
$var real 1 F adc $end
$var real 1 G lsb $end
$var real 1 H tmp $end
$var real 1 I v_erase $end
$upscope $end
$scope module P3 $end
$var wire 8 J DATA [7:0] $end
$var wire 1 + ERASE $end
$var wire 1 * EXPOSE $end
$var wire 1 - RAMP $end
$var wire 1 & READ $end
$var wire 1 $ RESET $end
$var wire 1 . VBN1 $end
$var reg 1 K cmp $end
$var reg 8 L p_data [7:0] $end
$var real 1 M adc $end
$var real 1 N lsb $end
$var real 1 O tmp $end
$var real 1 P v_erase $end
$upscope $end
$upscope $end
$upscope $end
$upscope $end
$enddefinitions $end
#500000
$dumpvars
r1.2 P
r0 O
r0.004705882352941176 N
r0 M
bx L
xK
bx J
r1.2 I
r0 H
r0.004705882352941176 G
r0 F
bx E
xD
bx C
r1.2 B
r0 A
r0.004705882352941176 @
r0 ?
bx >
x=
bx <
r1.2 ;
r0 :
r0.004705882352941176 9
r0 8
bx 7
x6
bx 5
bx 4
b0 3
b0 2
b0 1
b0 0
b0 /
x.
0-
0,
x+
x*
x)
x(
x'
x&
bx %
1$
0#
1"
b0 !
$end
#1000000
b0 %
b0 4
b0 5
b0 <
b0 C
b0 J
0K
b0 L
r1.2 O
0D
b0 E
r1.2 H
0=
b0 >
r1.2 A
06
b0 7
r1.2 :
0*
0&
0'
0(
0)
1+
0.
0"
#1500000
b1 3
1"
#2000000
0"
#2500000
b10 3
1"
#3000000
0"
#3500000
b11 3
1"
#4000000
0"
#4500000
b100 3
1"
#5000000
0"
#5500000
b101 3
1"
#6000000
0"
#6500000
b111 2
b1 1
b110 3
1"
#7000000
0+
0"
#7500000
b1 2
b0 3
1"
#8000000
1*
0"
#8500000
r1.196235294117647 O
r1.197176470588235 H
r1.198117647058824 A
r1.199058823529412 :
1.
b1 3
1"
#9000000
0.
0"
#9500000
r1.198117647058824 :
r1.196235294117647 A
r1.194352941176471 H
r1.192470588235294 O
1.
b10 3
1"
#10000000
0.
0"
#10500000
r1.188705882352941 O
r1.191529411764706 H
r1.194352941176471 A
r1.197176470588235 :
1.
b11 3
1"
#11000000
0.
0"
#11500000
r1.196235294117647 :
r1.192470588235294 A
r1.188705882352941 H
r1.184941176470588 O
1.
b100 3
1"
#12000000
0.
0"
#12500000
r1.181176470588235 O
r1.185882352941177 H
r1.190588235294118 A
r1.195294117647059 :
1.
b101 3
1"
#13000000
0.
0"
#13500000
r1.194352941176471 :
r1.188705882352941 A
r1.183058823529412 H
r1.177411764705883 O
1.
b110 3
1"
#14000000
0.
0"
#14500000
r1.17364705882353 O
r1.180235294117647 H
r1.186823529411765 A
r1.193411764705882 :
1.
b111 3
1"
#15000000
0.
0"
#15500000
r1.192470588235294 :
r1.184941176470588 A
r1.177411764705883 H
r1.169882352941177 O
1.
b1000 3
1"
#16000000
0.
0"
#16500000
r1.166117647058824 O
r1.174588235294118 H
r1.183058823529412 A
r1.191529411764706 :
1.
b1001 3
1"
#17000000
0.
0"
#17500000
r1.190588235294118 :
r1.181176470588235 A
r1.171764705882353 H
r1.162352941176471 O
1.
b1010 3
1"
#18000000
0.
0"
#18500000
r1.158588235294118 O
r1.168941176470589 H
r1.179294117647059 A
r1.18964705882353 :
1.
b1011 3
1"
#19000000
0.
0"
#19500000
r1.188705882352941 :
r1.177411764705883 A
r1.166117647058824 H
r1.154823529411765 O
1.
b1100 3
1"
#20000000
0.
0"
#20500000
r1.151058823529412 O
r1.163294117647059 H
r1.175529411764706 A
r1.187764705882353 :
1.
b1101 3
1"
#21000000
0.
0"
#21500000
r1.186823529411765 :
r1.17364705882353 A
r1.160470588235295 H
r1.147294117647059 O
1.
b1110 3
1"
#22000000
0.
0"
#22500000
r1.143529411764707 O
r1.15764705882353 H
r1.171764705882353 A
r1.185882352941177 :
1.
b1111 3
1"
#23000000
0.
0"
#23500000
r1.184941176470588 :
r1.169882352941177 A
r1.154823529411765 H
r1.139764705882354 O
1.
b10000 3
1"
#24000000
0.
0"
#24500000
r1.136000000000001 O
r1.152000000000001 H
r1.168 A
r1.184 :
1.
b10001 3
1"
#25000000
0.
0"
#25500000
r1.183058823529412 :
r1.166117647058824 A
r1.149176470588236 H
r1.132235294117648 O
1.
b10010 3
1"
#26000000
0.
0"
#26500000
r1.128470588235295 O
r1.146352941176471 H
r1.164235294117647 A
r1.182117647058824 :
1.
b10011 3
1"
#27000000
0.
0"
#27500000
r1.181176470588235 :
r1.162352941176471 A
r1.143529411764707 H
r1.124705882352942 O
1.
b10100 3
1"
#28000000
0.
0"
#28500000
r1.120941176470589 O
r1.140705882352942 H
r1.160470588235295 A
r1.180235294117647 :
1.
b10101 3
1"
#29000000
0.
0"
#29500000
r1.179294117647059 :
r1.158588235294118 A
r1.137882352941177 H
r1.117176470588236 O
1.
b10110 3
1"
#30000000
0.
0"
#30500000
r1.113411764705883 O
r1.135058823529413 H
r1.156705882352942 A
r1.178352941176471 :
1.
b10111 3
1"
#31000000
0.
0"
#31500000
r1.177411764705883 :
r1.154823529411765 A
r1.132235294117648 H
r1.109647058823531 O
1.
b11000 3
1"
#32000000
0.
0"
#32500000
r1.105882352941178 O
r1.129411764705883 H
r1.152941176470589 A
r1.176470588235294 :
1.
b11001 3
1"
#33000000
0.
0"
#33500000
r1.175529411764706 :
r1.151058823529412 A
r1.126588235294119 H
r1.102117647058825 O
1.
b11010 3
1"
#34000000
0.
0"
#34500000
r1.098352941176472 O
r1.123764705882354 H
r1.149176470588236 A
r1.174588235294118 :
1.
b11011 3
1"
#35000000
0.
0"
#35500000
r1.17364705882353 :
r1.147294117647059 A
r1.120941176470589 H
r1.094588235294119 O
1.
b11100 3
1"
#36000000
0.
0"
#36500000
r1.090823529411766 O
r1.118117647058825 H
r1.145411764705883 A
r1.172705882352941 :
1.
b11101 3
1"
#37000000
0.
0"
#37500000
r1.171764705882353 :
r1.143529411764707 A
r1.11529411764706 H
r1.087058823529413 O
1.
b11110 3
1"
#38000000
0.
0"
#38500000
r1.08329411764706 O
r1.112470588235295 H
r1.14164705882353 A
r1.170823529411765 :
1.
b11111 3
1"
#39000000
0.
0"
#39500000
r1.169882352941177 :
r1.139764705882354 A
r1.109647058823531 H
r1.079529411764707 O
1.
b100000 3
1"
#40000000
0.
0"
#40500000
r1.075764705882355 O
r1.106823529411766 H
r1.137882352941177 A
r1.168941176470589 :
1.
b100001 3
1"
#41000000
0.
0"
#41500000
r1.168 :
r1.136000000000001 A
r1.104000000000001 H
r1.072000000000002 O
1.
b100010 3
1"
#42000000
0.
0"
#42500000
r1.068235294117649 O
r1.101176470588237 H
r1.134117647058824 A
r1.167058823529412 :
1.
b100011 3
1"
#43000000
0.
0"
#43500000
r1.166117647058824 :
r1.132235294117648 A
r1.098352941176472 H
r1.064470588235296 O
1.
b100100 3
1"
#44000000
0.
0"
#44500000
r1.060705882352943 O
r1.095529411764707 H
r1.130352941176471 A
r1.165176470588236 :
1.
b100101 3
1"
#45000000
0.
0"
#45500000
r1.164235294117647 :
r1.128470588235295 A
r1.092705882352943 H
r1.05694117647059 O
1.
b100110 3
1"
#46000000
0.
0"
#46500000
r1.053176470588237 O
r1.089882352941178 H
r1.126588235294119 A
r1.163294117647059 :
1.
b100111 3
1"
#47000000
0.
0"
#47500000
r1.162352941176471 :
r1.124705882352942 A
r1.087058823529413 H
r1.049411764705884 O
1.
b101000 3
1"
#48000000
0.
0"
#48500000
r1.045647058823531 O
r1.084235294117649 H
r1.122823529411766 A
r1.161411764705883 :
1.
b101001 3
1"
#49000000
0.
0"
#49500000
r1.160470588235295 :
r1.120941176470589 A
r1.081411764705884 H
r1.041882352941178 O
1.
b101010 3
1"
#50000000
0.
0"
#50500000
r1.038117647058826 O
r1.078588235294119 H
r1.119058823529413 A
r1.159529411764706 :
1.
b101011 3
1"
#51000000
0.
0"
#51500000
r1.158588235294118 :
r1.117176470588236 A
r1.075764705882355 H
r1.034352941176473 O
1.
b101100 3
1"
#52000000
0.
0"
#52500000
r1.03058823529412 O
r1.07294117647059 H
r1.11529411764706 A
r1.15764705882353 :
1.
b101101 3
1"
#53000000
0.
0"
#53500000
r1.156705882352942 :
r1.113411764705883 A
r1.070117647058825 H
r1.026823529411767 O
1.
b101110 3
1"
#54000000
0.
0"
#54500000
r1.023058823529414 O
r1.067294117647061 H
r1.111529411764707 A
r1.155764705882353 :
1.
b101111 3
1"
#55000000
0.
0"
#55500000
r1.154823529411765 :
r1.109647058823531 A
r1.064470588235296 H
r1.019294117647061 O
1.
b110000 3
1"
#56000000
0.
0"
#56500000
r1.015529411764708 O
r1.061647058823531 H
r1.107764705882354 A
r1.153882352941177 :
1.
b110001 3
1"
#57000000
0.
0"
#57500000
r1.152941176470589 :
r1.105882352941178 A
r1.058823529411766 H
r1.011764705882355 O
1.
b110010 3
1"
#58000000
0.
0"
#58500000
r1.008000000000002 O
r1.056000000000002 H
r1.104000000000001 A
r1.152000000000001 :
1.
b110011 3
1"
#59000000
0.
0"
#59500000
r1.151058823529412 :
r1.102117647058825 A
r1.053176470588237 H
r1.00423529411765 O
1.
b110100 3
1"
#60000000
0.
0"
#60500000
r1.000470588235297 O
r1.050352941176472 H
r1.100235294117648 A
r1.150117647058824 :
1.
b110101 3
1"
#61000000
0.
0"
#61500000
r1.149176470588236 :
r1.098352941176472 A
r1.047529411764708 H
r0.9967058823529438 O
1.
b110110 3
1"
#62000000
0.
0"
#62500000
r0.9929411764705909 O
r1.044705882352943 H
r1.096470588235295 A
r1.148235294117648 :
1.
b110111 3
1"
#63000000
0.
0"
#63500000
r1.147294117647059 :
r1.094588235294119 A
r1.041882352941178 H
r0.989176470588238 O
1.
b111000 3
1"
#64000000
0.
0"
#64500000
r0.9854117647058851 O
r1.039058823529414 H
r1.092705882352943 A
r1.146352941176471 :
1.
b111001 3
1"
#65000000
0.
0"
#65500000
r1.145411764705883 :
r1.090823529411766 A
r1.036235294117649 H
r0.9816470588235322 O
1.
b111010 3
1"
#66000000
0.
0"
#66500000
r0.9778823529411793 O
r1.033411764705884 H
r1.08894117647059 A
r1.144470588235295 :
1.
b111011 3
1"
#67000000
0.
0"
#67500000
r1.143529411764707 :
r1.087058823529413 A
r1.03058823529412 H
r0.9741176470588264 O
1.
b111100 3
1"
#68000000
0.
0"
#68500000
r0.9703529411764735 O
r1.027764705882355 H
r1.085176470588237 A
r1.142588235294118 :
1.
b111101 3
1"
#69000000
0.
0"
#69500000
r1.14164705882353 :
r1.08329411764706 A
r1.02494117647059 H
r0.9665882352941206 O
1.
b111110 3
1"
#70000000
0.
0"
#70500000
r0.9628235294117677 O
r1.022117647058826 H
r1.081411764705884 A
r1.140705882352942 :
1.
b111111 3
1"
#71000000
0.
0"
#71500000
r1.139764705882354 :
r1.079529411764707 A
r1.019294117647061 H
r0.9590588235294149 O
1.
b1000000 3
1"
#72000000
0.
0"
#72500000
r0.955294117647062 O
r1.016470588235296 H
r1.077647058823531 A
r1.138823529411765 :
1.
b1000001 3
1"
#73000000
0.
0"
#73500000
r1.137882352941177 :
r1.075764705882355 A
r1.013647058823532 H
r0.9515294117647091 O
1.
b1000010 3
1"
#74000000
0.
0"
#74500000
r0.9477647058823562 O
r1.010823529411767 H
r1.073882352941178 A
r1.136941176470589 :
1.
b1000011 3
1"
#75000000
0.
0"
#75500000
r1.136000000000001 :
r1.072000000000002 A
r1.008000000000002 H
r0.9440000000000033 O
1.
b1000100 3
1"
#76000000
0.
0"
#76500000
r0.9402352941176504 O
r1.005176470588238 H
r1.070117647058825 A
r1.135058823529413 :
1.
b1000101 3
1"
#77000000
0.
0"
#77500000
r1.134117647058824 :
r1.068235294117649 A
r1.002352941176473 H
r0.9364705882352975 O
1.
b1000110 3
1"
#78000000
0.
0"
#78500000
r0.9327058823529446 O
r0.9995294117647084 H
r1.066352941176472 A
r1.133176470588236 :
1.
b1000111 3
1"
#79000000
0.
0"
#79500000
r1.132235294117648 :
r1.064470588235296 A
r0.9967058823529438 H
r0.9289411764705917 O
1.
b1001000 3
1"
#80000000
0.
0"
#80500000
r0.9251764705882388 O
r0.9938823529411791 H
r1.062588235294119 A
r1.13129411764706 :
1.
b1001001 3
1"
#81000000
0.
0"
#81500000
r1.130352941176471 :
r1.060705882352943 A
r0.9910588235294144 H
r0.9214117647058859 O
1.
b1001010 3
1"
#82000000
0.
0"
#82500000
r0.917647058823533 O
r0.9882352941176498 H
r1.058823529411766 A
r1.129411764705883 :
1.
b1001011 3
1"
#83000000
0.
0"
#83500000
r1.128470588235295 :
r1.05694117647059 A
r0.9854117647058851 H
r0.9138823529411801 O
1.
b1001100 3
1"
#84000000
0.
0"
#84500000
r0.9101176470588273 O
r0.9825882352941204 H
r1.055058823529414 A
r1.127529411764707 :
1.
b1001101 3
1"
#85000000
0.
0"
#85500000
r1.126588235294119 :
r1.053176470588237 A
r0.9797647058823558 H
r0.9063529411764744 O
1.
b1001110 3
1"
#86000000
0.
0"
#86500000
r0.9025882352941215 O
r0.9769411764705911 H
r1.051294117647061 A
r1.12564705882353 :
1.
b1001111 3
1"
#87000000
0.
0"
#87500000
r1.124705882352942 :
r1.049411764705884 A
r0.9741176470588264 H
r0.8988235294117686 O
1.
b1010000 3
1"
#88000000
0.
0"
#88500000
r0.8950588235294157 O
r0.9712941176470617 H
r1.047529411764708 A
r1.123764705882354 :
1.
b1010001 3
1"
#89000000
0.
0"
#89500000
r1.122823529411766 :
r1.045647058823531 A
r0.9684705882352971 H
r0.8912941176470628 O
1.
b1010010 3
1"
#90000000
0.
0"
#90500000
r0.8875294117647099 O
r0.9656470588235324 H
r1.043764705882355 A
r1.121882352941177 :
1.
b1010011 3
1"
#91000000
0.
0"
#91500000
r1.120941176470589 :
r1.041882352941178 A
r0.9628235294117677 H
r0.883764705882357 O
1.
b1010100 3
1"
#92000000
0.
0"
#92500000
r0.8800000000000041 O
r0.9600000000000031 H
r1.040000000000002 A
r1.120000000000001 :
1.
b1010101 3
1"
#93000000
0.
0"
#93500000
r1.119058823529413 :
r1.038117647058826 A
r0.9571764705882384 H
r0.8762352941176512 O
1.
b1010110 3
1"
#94000000
0.
0"
#94500000
r0.8724705882352983 O
r0.9543529411764737 H
r1.036235294117649 A
r1.118117647058825 :
1.
b1010111 3
1"
#95000000
0.
0"
#95500000
r1.117176470588236 :
r1.034352941176473 A
r0.9515294117647091 H
r0.8687058823529454 O
1.
b1011000 3
1"
#96000000
0.
0"
#96500000
r0.8649411764705925 O
r0.9487058823529444 H
r1.032470588235296 A
r1.116235294117648 :
1.
b1011001 3
1"
#97000000
0.
0"
#97500000
r1.11529411764706 :
r1.03058823529412 A
r0.9458823529411797 H
r0.8611764705882397 O
1.
b1011010 3
1"
#98000000
0.
0"
#98500000
r0.8574117647058868 O
r0.9430588235294151 H
r1.028705882352943 A
r1.114352941176472 :
1.
b1011011 3
1"
#99000000
0.
0"
#99500000
r1.113411764705883 :
r1.026823529411767 A
r0.9402352941176504 H
r0.8536470588235339 O
1.
b1011100 3
1"
#100000000
0.
0"
#100500000
r0.849882352941181 O
r0.9374117647058857 H
r1.02494117647059 A
r1.112470588235295 :
1.
b1011101 3
1"
#101000000
0.
0"
#101500000
r1.111529411764707 :
r1.023058823529414 A
r0.9345882352941211 H
r0.8461176470588281 O
1.
b1011110 3
1"
#102000000
0.
0"
#102500000
r0.8423529411764752 O
r0.9317647058823564 H
r1.021176470588238 A
r1.110588235294119 :
1.
b1011111 3
1"
#103000000
0.
0"
#103500000
r1.109647058823531 :
r1.019294117647061 A
r0.9289411764705917 H
r0.8385882352941223 O
1.
b1100000 3
1"
#104000000
0.
0"
#104500000
r0.8348235294117694 O
r0.926117647058827 H
r1.017411764705885 A
r1.108705882352942 :
1.
b1100001 3
1"
#105000000
0.
0"
#105500000
r1.107764705882354 :
r1.015529411764708 A
r0.9232941176470624 H
r0.8310588235294165 O
1.
b1100010 3
1"
#106000000
0.
0"
#106500000
r0.8272941176470636 O
r0.9204705882352977 H
r1.013647058823532 A
r1.106823529411766 :
1.
b1100011 3
1"
#107000000
0.
0"
#107500000
r1.105882352941178 :
r1.011764705882355 A
r0.917647058823533 H
r0.8235294117647107 O
1.
b1100100 3
1"
#108000000
0.
0"
#108500000
r0.8197647058823578 O
r0.9148235294117684 H
r1.009882352941179 A
r1.104941176470589 :
1.
b1100101 3
1"
#109000000
0.
0"
#109500000
r1.104000000000001 :
r1.008000000000002 A
r0.9120000000000037 H
r0.8160000000000049 O
1.
b1100110 3
1"
#110000000
0.
0"
#110500000
r0.8122352941176521 O
r0.909176470588239 H
r1.006117647058826 A
r1.103058823529413 :
1.
b1100111 3
1"
#111000000
0.
0"
#111500000
r1.102117647058825 :
r1.00423529411765 A
r0.9063529411764744 H
r0.8084705882352992 O
1.
b1101000 3
1"
#112000000
0.
0"
#112500000
r0.8047058823529463 O
r0.9035294117647097 H
r1.002352941176473 A
r1.101176470588237 :
1.
b1101001 3
1"
#113000000
0.
0"
#113500000
r1.100235294117648 :
r1.000470588235297 A
r0.900705882352945 H
r0.8009411764705934 O
1.
b1101010 3
1"
#114000000
0.
0"
#114500000
r0.7971764705882405 O
r0.8978823529411804 H
r0.9985882352941202 A
r1.09929411764706 :
1.
b1101011 3
1"
#115000000
0.
0"
#115500000
r1.098352941176472 :
r0.9967058823529438 A
r0.8950588235294157 H
r0.7934117647058876 O
1.
b1101100 3
1"
#116000000
0.
0"
#116500000
r0.7896470588235347 O
r0.892235294117651 H
r0.9948235294117673 A
r1.097411764705884 :
1.
b1101101 3
1"
#117000000
0.
0"
#117500000
r1.096470588235295 :
r0.9929411764705909 A
r0.8894117647058863 H
r0.7858823529411818 O
1.
b1101110 3
1"
#118000000
0.
0"
#118500000
r0.7821176470588289 O
r0.8865882352941217 H
r0.9910588235294144 A
r1.095529411764707 :
1.
b1101111 3
1"
#119000000
0.
0"
#119500000
r1.094588235294119 :
r0.989176470588238 A
r0.883764705882357 H
r0.778352941176476 O
1.
b1110000 3
1"
#120000000
0.
0"
#120500000
r0.7745882352941231 O
r0.8809411764705923 H
r0.9872941176470615 A
r1.093647058823531 :
1.
b1110001 3
1"
#121000000
0.
0"
#121500000
r1.092705882352943 :
r0.9854117647058851 A
r0.8781176470588277 H
r0.7708235294117702 O
1.
b1110010 3
1"
#122000000
0.
0"
#122500000
r0.7670588235294173 O
r0.875294117647063 H
r0.9835294117647086 A
r1.091764705882354 :
1.
b1110011 3
1"
#123000000
0.
0"
#123500000
r1.090823529411766 :
r0.9816470588235322 A
r0.8724705882352983 H
r0.7632941176470645 O
1.
b1110100 3
1"
#124000000
0.
0"
#124500000
r0.7595294117647116 O
r0.8696470588235337 H
r0.9797647058823558 A
r1.089882352941178 :
1.
b1110101 3
1"
#125000000
0.
0"
#125500000
r1.08894117647059 :
r0.9778823529411793 A
r0.866823529411769 H
r0.7557647058823587 O
1.
b1110110 3
1"
#126000000
0.
0"
#126500000
r0.7520000000000058 O
r0.8640000000000043 H
r0.9760000000000029 A
r1.088000000000001 :
1.
b1110111 3
1"
#127000000
0.
0"
#127500000
r1.087058823529413 :
r0.9741176470588264 A
r0.8611764705882397 H
r0.7482352941176529 O
1.
b1111000 3
1"
#128000000
0.
0"
#128500000
r0.7444705882353 O
r0.858352941176475 H
r0.97223529411765 A
r1.086117647058825 :
1.
b1111001 3
1"
#129000000
0.
0"
#129500000
r1.085176470588237 :
r0.9703529411764735 A
r0.8555294117647103 H
r0.7407058823529471 O
1.
b1111010 3
1"
#130000000
0.
0"
#130500000
r0.7369411764705942 O
r0.8527058823529456 H
r0.9684705882352971 A
r1.084235294117649 :
1.
b1111011 3
1"
#131000000
0.
0"
#131500000
r1.08329411764706 :
r0.9665882352941206 A
r0.849882352941181 H
r0.7331764705882413 O
1.
b1111100 3
1"
#132000000
0.
0"
#132500000
r0.7294117647058884 O
r0.8470588235294163 H
r0.9647058823529442 A
r1.082352941176472 :
1.
b1111101 3
1"
#133000000
0.
0"
#133500000
r1.081411764705884 :
r0.9628235294117677 A
r0.8442352941176516 H
r0.7256470588235355 O
1.
b1111110 3
1"
#134000000
0.
0"
#134500000
r0.7218823529411826 O
r0.841411764705887 H
r0.9609411764705913 A
r1.080470588235296 :
1.
b1111111 3
1"
#135000000
0.
0"
#135500000
r1.079529411764707 :
r0.9590588235294149 A
r0.8385882352941223 H
r0.7181176470588297 O
1.
b10000000 3
1"
#136000000
0.
0"
#136500000
r0.7143529411764769 O
r0.8357647058823576 H
r0.9571764705882384 A
r1.078588235294119 :
1.
b10000001 3
1"
#137000000
0.
0"
#137500000
r1.077647058823531 :
r0.955294117647062 A
r0.832941176470593 H
r0.710588235294124 O
1.
b10000010 3
1"
#138000000
0.
0"
#138500000
r0.7068235294117711 O
r0.8301176470588283 H
r0.9534117647058855 A
r1.076705882352943 :
1.
b10000011 3
1"
#139000000
0.
0"
#139500000
r1.075764705882355 :
r0.9515294117647091 A
r0.8272941176470636 H
r0.7030588235294182 O
1.
b10000100 3
1"
#140000000
0.
0"
#140500000
r0.6992941176470653 O
r0.824470588235299 H
r0.9496470588235326 A
r1.074823529411766 :
1.
b10000101 3
1"
#141000000
0.
0"
#141500000
r1.073882352941178 :
r0.9477647058823562 A
r0.8216470588235343 H
r0.6955294117647124 O
1.
b10000110 3
1"
#142000000
0.
0"
#142500000
r0.6917647058823595 O
r0.8188235294117696 H
r0.9458823529411797 A
r1.07294117647059 :
1.
b10000111 3
1"
#143000000
0.
0"
#143500000
r1.072000000000002 :
r0.9440000000000033 A
r0.8160000000000049 H
r0.6880000000000066 O
1.
b10001000 3
1"
#144000000
0.
0"
#144500000
r0.6842352941176537 O
r0.8131764705882403 H
r0.9421176470588268 A
r1.071058823529413 :
1.
b10001001 3
1"
#145000000
0.
0"
#145500000
r1.070117647058825 :
r0.9402352941176504 A
r0.8103529411764756 H
r0.6804705882353008 O
1.
b10001010 3
1"
#146000000
0.
0"
#146500000
r0.6767058823529479 O
r0.8075294117647109 H
r0.9383529411764739 A
r1.069176470588237 :
1.
b10001011 3
1"
#147000000
0.
0"
#147500000
r1.068235294117649 :
r0.9364705882352975 A
r0.8047058823529463 H
r0.672941176470595 O
1.
b10001100 3
1"
#148000000
0.
0"
#148500000
r0.6691764705882421 O
r0.8018823529411816 H
r0.9345882352941211 A
r1.067294117647061 :
1.
b10001101 3
1"
#149000000
0.
0"
#149500000
r1.066352941176472 :
r0.9327058823529446 A
r0.7990588235294169 H
r0.6654117647058893 O
1.
b10001110 3
1"
#150000000
0.
0"
#150500000
r0.6616470588235364 O
r0.7962352941176523 H
r0.9308235294117682 A
r1.065411764705884 :
1.
b10001111 3
1"
#151000000
0.
0"
#151500000
r1.064470588235296 :
r0.9289411764705917 A
r0.7934117647058876 H
r0.6578823529411835 O
1.
b10010000 3
1"
#152000000
0.
0"
#152500000
r0.6541176470588306 O
r0.7905882352941229 H
r0.9270588235294153 A
r1.063529411764708 :
1.
b10010001 3
1"
#153000000
0.
0"
#153500000
r1.062588235294119 :
r0.9251764705882388 A
r0.7877647058823583 H
r0.6503529411764777 O
1.
b10010010 3
1"
#154000000
0.
0"
#154500000
r0.6465882352941248 O
r0.7849411764705936 H
r0.9232941176470624 A
r1.061647058823531 :
1.
b10010011 3
1"
#155000000
0.
0"
#155500000
r1.060705882352943 :
r0.9214117647058859 A
r0.7821176470588289 H
r0.6428235294117719 O
1.
b10010100 3
1"
#156000000
0.
0"
#156500000
r0.639058823529419 O
r0.7792941176470642 H
r0.9195294117647095 A
r1.059764705882355 :
1.
b10010101 3
1"
#157000000
0.
0"
#157500000
r1.058823529411766 :
r0.917647058823533 A
r0.7764705882352996 H
r0.6352941176470661 O
1.
b10010110 3
1"
#158000000
0.
0"
#158500000
r0.6315294117647132 O
r0.7736470588235349 H
r0.9157647058823566 A
r1.057882352941178 :
1.
b10010111 3
1"
#159000000
0.
0"
#159500000
r1.05694117647059 :
r0.9138823529411801 A
r0.7708235294117702 H
r0.6277647058823603 O
1.
b10011000 3
1"
#160000000
0.
0"
#160500000
r0.6240000000000074 O
r0.7680000000000056 H
r0.9120000000000037 A
r1.056000000000002 :
1.
b10011001 3
1"
#161000000
0.
0"
#161500000
r1.055058823529414 :
r0.9101176470588273 A
r0.7651764705882409 H
r0.6202352941176545 O
1.
b10011010 3
1"
#162000000
0.
0"
#162500000
r0.6164705882353017 O
r0.7623529411764762 H
r0.9082352941176508 A
r1.054117647058825 :
1.
b10011011 3
1"
#163000000
0.
0"
#163500000
r1.053176470588237 :
r0.9063529411764744 A
r0.7595294117647116 H
r0.6127058823529488 O
1.
b10011100 3
1"
#164000000
0.
0"
#164500000
r0.6089411764705959 O
r0.7567058823529469 H
r0.9044705882352979 A
r1.052235294117649 :
1.
b10011101 3
1"
#165000000
0.
0"
#165500000
r1.051294117647061 :
r0.9025882352941215 A
r0.7538823529411822 H
r0.605176470588243 O
1.
b10011110 3
1"
#166000000
0.
0"
#166500000
r0.6014117647058901 O
r0.7510588235294176 H
r0.900705882352945 A
r1.050352941176472 :
1.
b10011111 3
1"
#167000000
0.
0"
#167500000
r1.049411764705884 :
r0.8988235294117686 A
r0.7482352941176529 H
r0.5976470588235372 O
1.
b10100000 3
1"
#168000000
0.
0"
#168500000
r0.5938823529411843 O
r0.7454117647058882 H
r0.8969411764705921 A
r1.048470588235296 :
1.
b10100001 3
1"
#169000000
0.
0"
#169500000
r1.047529411764708 :
r0.8950588235294157 A
r0.7425882352941235 H
r0.5901176470588314 O
1.
b10100010 3
1"
#170000000
0.
0"
#170500000
r0.5863529411764785 O
r0.7397647058823589 H
r0.8931764705882392 A
r1.04658823529412 :
1.
b10100011 3
1"
#171000000
0.
0"
#171500000
r1.045647058823531 :
r0.8912941176470628 A
r0.7369411764705942 H
r0.5825882352941256 O
1.
b10100100 3
1"
#172000000
0.
0"
#172500000
r0.5788235294117727 O
r0.7341176470588295 H
r0.8894117647058863 A
r1.044705882352943 :
1.
b10100101 3
1"
#173000000
0.
0"
#173500000
r1.043764705882355 :
r0.8875294117647099 A
r0.7312941176470649 H
r0.5750588235294198 O
1.
b10100110 3
1"
#174000000
0.
0"
#174500000
r0.5712941176470669 O
r0.7284705882353002 H
r0.8856470588235335 A
r1.042823529411767 :
1.
b10100111 3
1"
#175000000
0.
0"
#175500000
r1.041882352941178 :
r0.883764705882357 A
r0.7256470588235355 H
r0.5675294117647141 O
1.
b10101000 3
1"
#176000000
0.
0"
#176500000
r0.5637647058823612 O
r0.7228235294117709 H
r0.8818823529411806 A
r1.04094117647059 :
1.
b10101001 3
1"
#177000000
0.
0"
#177500000
r1.040000000000002 :
r0.8800000000000041 A
r0.7200000000000062 H
r0.5600000000000083 O
1.
b10101010 3
1"
#178000000
0.
0"
#178500000
r0.5562352941176554 O
r0.7171764705882415 H
r0.8781176470588277 A
r1.039058823529414 :
1.
b10101011 3
1"
#179000000
0.
0"
#179500000
r1.038117647058826 :
r0.8762352941176512 A
r0.7143529411764769 H
r0.5524705882353025 O
1.
b10101100 3
1"
#180000000
0.
0"
#180500000
r0.5487058823529496 O
r0.7115294117647122 H
r0.8743529411764748 A
r1.037176470588237 :
1.
b10101101 3
1"
#181000000
0.
0"
